{
    "name": "shadowrun-6e",
    "title": "Shadowrun 6: Sixth World",
    "description": "",
    "version": "0.0.20",
    "templateVersion": 23,
    "minimumCoreVersion": "9.249",
    "compatibleCoreVersion": "9.249",
    "author": "Danny Cain <danny@dannycain.com>",
    "scripts": [],
    "esmodules": [
        "assets/js/main.js"
    ],
    "styles": [
        "assets/css/main.css"
    ],
    "languages": [],
    "packs": [
        {
            "name": "skills",
            "label": "Skills",
            "system": "shadowrun-6e",
            "path": "./packs/skills.db",
            "entity": "Item"
        },
        {
            "name": "powers",
            "label": "Powers",
            "system": "shadowrun-6e",
            "path": "./packs/powers.db",
            "entity": "Item"
        },
        {
            "name": "spirits",
            "label": "Spirits",
            "system": "shadowrun-6e",
            "path": "./packs/spirits.db",
            "entity": "Actor"
        }
    ],
    "primaryTokenAttribute": null,
    "secondaryTokenAttribute": null,
    "socket": false,
    "initiative": "(@initiative.dice)d6+@initiative.total",
    "gridDistance": 1,
    "gridUnits": "m",
    "url": "https://gitlab.com/danny-foundry/shadowrun-6e",
    "manifest": "https://gitlab.com/danny-foundry/shadowrun-6e/-/raw/master/system.json",
    "download": "https://gitlab.com/danny-foundry/shadowrun-6e/-/archive/master/shadowrun-6e-master.zip"
}