[
    {
        "name": "Astral",
        "type": "skill",
        "data": {
            "attribute": "attributes.Intuition",
            "ranks": 0,
            "specialisation": "",
            "expertise": "",
            "description": "Used for assensing astral auras and astral combat."
        },
        "flags": [],
        "img": "icons\/svg\/mystery-man.svg",
        "permission": {
            "default": 0
        },
        "effects": []
    },
    {
        "name": "Athletics",
        "type": "skill",
        "data": {
            "attribute": "attributes.Agility",
            "ranks": 0,
            "specialisation": "",
            "expertise": "",
            "description": "Physical grace and prowess (strength, speed, quickness, nimbleness etc) and the ability to co-ordinate them."
        },
        "flags": [],
        "img": "icons\/svg\/mystery-man.svg",
        "permission": {
            "default": 0
        },
        "effects": []
    },
    {
        "name": "Biotech",
        "type": "skill",
        "data": {
            "attribute": "attributes.Logic",
            "ranks": 0,
            "specialisation": "",
            "expertise": "",
            "description": "Knowledge of biology.  Used for first aid, knowledge of augmentations.  Used for First Aid, Healing, analyzing and repairing augmentations and installing cyberware."
        },
        "flags": [],
        "img": "icons\/svg\/mystery-man.svg",
        "permission": {
            "default": 0
        },
        "effects": []
    },
    {
        "name": "Close Combat",
        "type": "skill",
        "data": {
            "attribute": "attributes.Agility",
            "ranks": 0,
            "specialisation": "",
            "expertise": "",
            "description": "Used for hurting people next to you."
        },
        "flags": [],
        "img": "icons\/svg\/mystery-man.svg",
        "permission": {
            "default": 0
        },
        "effects": []
    },
    {
        "name": "Con",
        "type": "skill",
        "data": {
            "attribute": "attributes.Charisma",
            "ranks": 0,
            "specialisation": "",
            "expertise": "",
            "description": "All the different ways of pretending you are someone you aren't - acting, disguise, impersonation, performance."
        },
        "flags": [],
        "img": "icons\/svg\/mystery-man.svg",
        "permission": {
            "default": 0
        },
        "effects": []
    },
    {
        "name": "Conjuring",
        "type": "skill",
        "data": {
            "attribute": "attributes.Special",
            "ranks": 0,
            "specialisation": "",
            "expertise": "",
            "description": "Everything related to spirits."
        },
        "flags": [],
        "img": "icons\/svg\/mystery-man.svg",
        "permission": {
            "default": 0
        },
        "effects": []
    },
    {
        "name": "Cracking",
        "type": "skill",
        "data": {
            "attribute": "attributes.Logic",
            "ranks": 0,
            "specialisation": "",
            "expertise": "",
            "description": "Used for illegal matrix actions."
        },
        "flags": [],
        "img": "icons\/svg\/mystery-man.svg",
        "permission": {
            "default": 0
        },
        "effects": []
    },
    {
        "name": "Electronics",
        "type": "skill",
        "data": {
            "attribute": "attributes.Logic",
            "ranks": 0,
            "specialisation": "",
            "expertise": "",
            "description": "Used for legal matrix actions."
        },
        "flags": [],
        "img": "icons\/svg\/mystery-man.svg",
        "permission": {
            "default": 0
        },
        "effects": []
    },
    {
        "name": "Enchanting",
        "type": "skill",
        "data": {
            "attribute": "attributes.Special",
            "ranks": 0,
            "specialisation": "",
            "expertise": "",
            "description": "Used to craft and destroy foci, fetishes and other magical items."
        },
        "flags": [],
        "img": "icons\/svg\/mystery-man.svg",
        "permission": {
            "default": 0
        },
        "effects": []
    },
    {
        "name": "Engineering",
        "type": "skill",
        "data": {
            "attribute": "attributes.Logic",
            "ranks": 0,
            "specialisation": "",
            "expertise": "",
            "description": "Building, repairing, jury-rigging mechanical objects, also used for picking mechanical and maglocks."
        },
        "flags": [],
        "img": "icons\/svg\/mystery-man.svg",
        "permission": {
            "default": 0
        },
        "effects": []
    },
    {
        "name": "Exotic Weapons",
        "type": "skill",
        "data": {
            "attribute": "attributes.Agility",
            "ranks": 0,
            "specialisation": "",
            "expertise": "",
            "description": "Used for exotic weapons, allows you to use any exotic weapon you have a specialization for (and can have multiple specializations) - cannot have expertise."
        },
        "flags": [],
        "img": "icons\/svg\/mystery-man.svg",
        "permission": {
            "default": 0
        },
        "effects": []
    },
    {
        "name": "Firearms",
        "type": "skill",
        "data": {
            "attribute": "attributes.Agility",
            "ranks": 0,
            "specialisation": "",
            "expertise": "",
            "description": "Used for arms of the fire variety (also guns)."
        },
        "flags": [],
        "img": "icons\/svg\/mystery-man.svg",
        "permission": {
            "default": 0
        },
        "effects": []
    },
    {
        "name": "Influence",
        "type": "skill",
        "data": {
            "attribute": "attributes.Charisma",
            "ranks": 0,
            "specialisation": "",
            "expertise": "",
            "description": "Used for negotiation, diplomacy and teaching.."
        },
        "flags": [],
        "img": "icons\/svg\/mystery-man.svg",
        "permission": {
            "default": 0
        },
        "effects": []
    },
    {
        "name": "Outdoors",
        "type": "skill",
        "data": {
            "attribute": "attributes.Intuition",
            "ranks": 0,
            "specialisation": "",
            "expertise": "",
            "description": "All the skills related to surviving outside (tracking, hunting, navigation)."
        },
        "flags": [],
        "img": "icons\/svg\/mystery-man.svg",
        "permission": {
            "default": 0
        },
        "effects": []
    },
    {
        "name": "Perception",
        "type": "skill",
        "data": {
            "attribute": "attributes.Intuition",
            "ranks": 0,
            "specialisation": "",
            "expertise": "",
            "description": "Used for noticing things (whether in the physical world or the more abstract - i.e. links between things)."
        },
        "flags": [],
        "img": "icons\/svg\/mystery-man.svg",
        "permission": {
            "default": 0
        },
        "effects": []
    },
    {
        "name": "Piloting",
        "type": "skill",
        "data": {
            "attribute": "attributes.Reaction",
            "ranks": 0,
            "specialisation": "",
            "expertise": "",
            "description": "Used for controlling vehicles."
        },
        "flags": [],
        "img": "icons\/svg\/mystery-man.svg",
        "permission": {
            "default": 0
        },
        "effects": []
    },
    {
        "name": "Sorcery",
        "type": "skill",
        "data": {
            "attribute": "attributes.Special",
            "ranks": 0,
            "specialisation": "",
            "expertise": "",
            "description": "Uh yeah, read the book..."
        },
        "flags": [],
        "img": "icons\/svg\/mystery-man.svg",
        "permission": {
            "default": 0
        },
        "effects": []
    },
    {
        "name": "Stealth",
        "type": "skill",
        "data": {
            "attribute": "attributes.Agility",
            "ranks": 0,
            "specialisation": "",
            "expertise": "",
            "description": "Used for hiding, sneaking, sleight of hand etc."
        },
        "flags": [],
        "img": "icons\/svg\/mystery-man.svg",
        "permission": {
            "default": 0
        },
        "effects": []
    },
    {
        "name": "Tasking",
        "type": "skill",
        "data": {
            "attribute": "attributes.Special",
            "ranks": 0,
            "specialisation": "",
            "expertise": "",
            "description": "The magic technomancer skill."
        },
        "flags": [],
        "img": "icons\/svg\/mystery-man.svg",
        "permission": {
            "default": 0
        },
        "effects": []
    }
]